…
``` r
get_adj_rsq <- function(model){ # create a useful function to output only the adj rsq value from glance() to avoid cluttering data frame with unncessary variables
  glance(model)$adj.r.squared
}

gap_reg_rsq <- nested_ds %>%
  mutate(adj_r2_lin = as.numeric(map(lin_fit, get_adj_rsq))) %>% # wrap as.numeric() around map() in order to coerce the output to show up when we call head() (otherwise it will just show "dbl [1]")
  mutate(adj_r2_quad = as.numeric(map(quad_fit, get_adj_rsq))) %>%
  select(continent, country, adj_r2_lin, adj_r2_quad)

gap_reg_rsq
```

    ## # A tibble: 142 x 4
    ##    continent country     adj_r2_lin adj_r2_quad
    ##    <fct>     <fct>            <dbl>       <dbl>
    ##  1 Asia      Afghanistan      0.942       0.987
    ##  2 Europe    Albania          0.902       0.953
    ##  3 Africa    Algeria          0.984       0.990
    ##  4 Africa    Angola           0.877       0.974
    ##  5 Americas  Argentina        0.995       0.995
    ##  6 Oceania   Australia        0.978       0.991
    ##  7 Europe    Austria          0.991       0.993
    ##  8 Asia      Bahrain          0.963       0.997
    ##  9 Asia      Bangladesh       0.988       0.997
    ## 10 Europe    Belgium          0.994       0.995
    ## # ... with 132 more rows

Now we can filter this tibble to show us which countries were modelled better by the quadratic model by filtering:

``` r
gap_rsq_quad_better <- gap_reg_rsq %>%
  filter(adj_r2_quad > adj_r2_lin)


gap_rsq_quad_better
```

    ## # A tibble: 126 x 4
    ##    continent country     adj_r2_lin adj_r2_quad
    ##    <fct>     <fct>            <dbl>       <dbl>
    ##  1 Asia      Afghanistan      0.942       0.987
    ##  2 Europe    Albania          0.902       0.953
    ##  3 Africa    Algeria          0.984       0.990
    ##  4 Africa    Angola           0.877       0.974
    ##  5 Oceania   Australia        0.978       0.991
    ##  6 Europe    Austria          0.991       0.993
    ##  7 Asia      Bahrain          0.963       0.997
    ##  8 Asia      Bangladesh       0.988       0.997
    ##  9 Europe    Belgium          0.994       0.995
    ## 10 Africa    Benin            0.963       0.994
    ## # ... with 116 more rows
…
